%YAML 1.1
%TAG !u! tag:unity3d.com,2011:
--- !u!114 &11400000
MonoBehaviour:
  m_ObjectHideFlags: 0
  m_PrefabParentObject: {fileID: 0}
  m_PrefabInternal: {fileID: 0}
  m_GameObject: {fileID: 0}
  m_Enabled: 1
  m_EditorHideFlags: 0
  m_Script: {fileID: 11500000, guid: 371f1cbc56c54cd4c84954dd072dcbff, type: 3}
  m_Name: PotionGreen_Top
  m_EditorClassIdentifier: 
  sprites:
  - {fileID: 21300000, guid: 1cac2f361a2a52d47997756fecc41119, type: 3}
  - {fileID: 21300002, guid: 1cac2f361a2a52d47997756fecc41119, type: 3}
  - {fileID: 21300004, guid: 1cac2f361a2a52d47997756fecc41119, type: 3}
  - {fileID: 21300006, guid: 1cac2f361a2a52d47997756fecc41119, type: 3}
  - {fileID: 21300008, guid: 1cac2f361a2a52d47997756fecc41119, type: 3}
  - {fileID: 21300010, guid: 1cac2f361a2a52d47997756fecc41119, type: 3}
  - {fileID: 21300012, guid: 1cac2f361a2a52d47997756fecc41119, type: 3}
  - {fileID: 21300014, guid: 1cac2f361a2a52d47997756fecc41119, type: 3}
  - {fileID: 21300016, guid: 1cac2f361a2a52d47997756fecc41119, type: 3}
  - {fileID: 21300018, guid: 1cac2f361a2a52d47997756fecc41119, type: 3}
  - {fileID: 21300020, guid: 1cac2f361a2a52d47997756fecc41119, type: 3}
  minSpeed: 0.5
  maxSpeed: 1.5
